{
  "title": "CourseExams",
  "model": "CourseExams.availableCourseExams",
  "searchExpression": "(indexof(name, '${text}') ge 0 or indexof(course/displayCode, '${text}') ge 0 or indexof(course/department/abbreviation, '${text}') ge 0 or indexof(course/department/name, '${text}') ge 0 or indexof(completedByUser/name, '${text}') ge 0 )",
  "columns": [
    {
      "name": "id",
      "property": "id",
      "formatter": "ActionLinkFormatter",
      "actions": [
        {
          "title": "Events.newExamEvent",
          "formatOptions": {
            "commands": [
              ".",
              "${encodeURIComponent(id)}",
              "add"
            ]
          }
        }
      ],
      "sortable": false
    },
    {
      "name": "course/displayCode",
      "property": "displayCode",
      "title": "Exams.DisplayCode"
    },
    {
      "name": "name",
      "property": "title",
      "title": "Exams.CourseName"
    },
    {
      "name": "year/alternateName",
      "property": "year",
      "title": "Exams.Year"
    },
    {
      "name": "examPeriod/name",
      "property": "examPeriod",
      "title": "Exams.Period"
    },
    {
      "name": "numberOfGradedStudents",
      "property": "numberOfGradedStudents",
      "title": "Exams.NumberOfGradedStudents"
    },
    {
      "name": "status/alternateName",
      "property": "status",
      "title": "Exams.Status",
      "formatter": "TranslationFormatter",
      "formatString": "ExamStatus.${value.toLowerCase()}"
    },
    {
      "name": "dateCompleted",
      "hidden": true,
      "property": "dateCompleted",
      "title": "Exams.DateCompleted",
      "formatter": "DateTimeFormatter",
      "formatString": "shortDate"
    },
    {
      "name": "completedByUser/name",
      "hidden": true,
      "property": "completedByUser",
      "title": "Exams.CompletedByUser"
    }

  ],
  "defaults":{
    "filter": "(course/department eq ${currentDepartment})",
    "orderBy": "year desc,examPeriod desc,name asc"
  },
  "criteria": [
    {
      "name": "courseName",
      "filter": "(indexof(name, '${value}') ge 0)",
      "type": "text"
    },
    {
      "name": "displayCode",
      "filter": "(course/displayCode eq '${value}')",
      "type": "text"
    },
    {
      "name": "status",
      "filter": "(status/alternateName eq '${value}')",
      "type": "text"
    },
    {
      "name": "yearId",
      "filter": "(year/id eq '${value}')",
      "type": "text"
    },
    {
      "name": "examPeriod",
      "filter": "(examPeriod/name eq '${value}')",
      "type": "text"
    },
    {
      "name": "dateCompleted",
      "filter": "(dateCompleted eq '${value}')",
      "type": "text"
    },
    {
      "name": "openCurrentExams",
      "filter": "(status/alternateName eq 'open')",
      "type": "text"
    },
    {
      "name": "currentYear",
      "filter": "(year eq '${currentYear}')",
      "type": "text"
    }
  ],
  "searches": [
    {
      "name": "AdvancedSearch.PreDefinedLists.currentYear",
      "filter": {
        "currentYear": true
      }
    }
  ],
  "paths": [
    {
      "name": "Exams.All",
      "alternateName": "list/index",
      "show": true,
      "filter": {}
    }
  ]
}
