{
  "settings": {
    "i18n": {
      "el": {
        "First day for the recursive event": "Πρώτη μέρα του επαναλαμβανόμενου γεγονότος διδασκαλίας",
        "Last day for the recursive event": "Τελευταία μέρα του επαναλαμβανόμενου γεγονότος διδασκαλίας",
        "Day of week for the event": "Ημέρα της εβδομάδας για το γεγονός διδασκαλίας",
        "Starting time for each event": "Ώρα έναρξης του κάθε γεγονότος",
        "Ending time for each event": "Ώρα λήξης του κάθε γεγονότος",
        "Pick Day": "Επιλογή Μέρας",
        "Start Date": "Από",
        "End Date": "Έως",
        "Start Time": "Ώρα Έναρξης",
        "End Time": "Ώρα Λήξης",
        "Event Name": "Τίτλος Γεγονότος",
        "Description": "Περιγραφή",
        "Sections": "Τμήματα",
        "New Recursive Event": "Νέο Επαναλαμβανόμενο Γεγονός",
        "Monday": "Δευτέρα",
        "Tuesday": "Τρίτη",
        "Wednesday": "Τετάρτη",
        "Thursday": "Πέμπτη",
        "Friday": "Παρασκευή",
        "Saturday": "Σάββατο",
        "Sunday": "Κυριακή",
        "Absence Coefficient": "Συντελεστής Απουσίας",
        "The number of absences an absent student will be charged with.": "Ο αριθμός των απουσιών που θα χρεωθεί ένας απόντας φοιτητής.",
        "Start time cannot succeed end time.": "Η ώρα έναρξης δεν μπορεί να έπεται της ώρας λήξης.",
        "End time cannot precede start time.": "Η ώρα λήξης δεν μπορεί να προηγείται της ώρας έναρξης.",
        "Start date cannot succeed end date.": "Η ημερομηνία έναρξης δεν μπορεί να έπεται της ημερομηνία λήξης.",
        "End date cannot precede start date.": "Η ημερομηνία λήξης δεν μπορεί να προηγείται της ημερομηνία έναρξης.",
        "Place": "Τοποθεσία",
        "Event URL":"URL Γεγονότος", 
        "Expected a valid absolute URL": "Αναμένεται μία έγκυρη διεύθυνση URL",
        "Enter the URL related to the event":"Eισάγετε την ηλεκτρονική διεύθυνση που σχετίζεται με το γεγονός",
        "Event date cannot be earlier than the timetable start date or after the timetable end date and/or start date cannot succeed end date.": "Η ημερομηνία του γεγονότος δεν μπορεί να προηγείται της ημερομηνίας έναρξης ή να έπεται της ημερομηνίας λήξης του ημερολογίου και/ή η ημερομηνία έναρξης δεν μπορεί να έπεται της ημερομηνία λήξης.",
        "Event date cannot be earlier than the timetable start date or after the timetable end date and/or end date cannot precede start date.": "Η ημερομηνία του γεγονότος δεν μπορεί να προηγείται της ημερομηνίας έναρξης ή να έπεται της ημερομηνίας λήξης του ημερολογίου και/ή η ημερομηνία λήξης δεν μπορεί να προηγείται της ημερομηνία έναρξης.",
        "The event cannot be created because the instructor does not have a linked user": "Το γεγονός δεν μπορεί να δημιουργηθεί γιατί ο διδάσκοντας δεν έχει συνδεδεμένο χρήστη"
      
      }
    }
  },
  "components": [
    {
      "type": "fieldset",
      "legend": "New Recursive Event",
      "components": [
        {
          "key": "newEventInfo",
          "type": "fieldset",
          "label": "Class and instructor info for this new event",
          "hideLabel": true,
          "input": false,
          "tableView": false,
          "components": [
            {
              "label": "HTML",
              "tag": "div",
              "className": "form-group",
              "content": "<div class=\"font-md\">({{data.courseClass && data.courseClass.course && data.courseClass.course.displayCode }}) {{ data.title  }} - {{data.instructor && data.instructor.familyName}} {{data.instructor && data.instructor.givenName}} ({{form.timetableStartDate.toLocaleDateString(instance.i18next.language)}} - {{form.timetableEndDate.toLocaleDateString(instance.i18next.language)}})</div>",
              "refreshOnChange": false,
              "tableView": false,
              "key": "subtitle",
              "customConditional": "show = !!(data.instructor && data.title && data.courseClass)",
              "type": "htmlelement",
              "input": false
            },
            {
              "label": "HTML",
              "tag": "div",
              "className": "form-group",
              "content": "<div class=\"font-md\">{{instance.t('The event cannot be created because the instructor does not have a linked user')}}</div>",
              "refreshOnChange": false,
              "tableView": false,
              "customConditional": "show = !!(data.instructor && !data.instructor.user)",
              "key": "subtitle",
              "type": "htmlelement",
              "input": false,
              "customClass": "text-danger"
            }
          ]
        },
        {
          "customClass": "text-dark",
          "hideLabel": true,
          "type": "columns",
          "input": false,
          "columns": [
            {
              "components": [
                {
                  "label": "Start Date",
                  "tableView": false,
                  "description": "First day for the recursive event",
                  "format": "dd-MM-yyyy",
                  "enableTime": false,
                  "validate": {
                    "required": true,
                    "custom": "valid =  (!data.endDate || (input && moment(input).isBefore(data.endDate))) &&  input && form.timetableStartDate && (moment(input).isAfter(moment(form.timetableStartDate).subtract(1, 'days')) && moment(input).isBefore(moment(form.timetableEndDate).add(1, 'days')));"
                  },
                  "errors": {
                    "custom": "Event date cannot be earlier than the timetable start date or after the timetable end date and/or start date cannot succeed end date."
                  },
                  "key": "startDate",
                  "type": "datetime",
                  "input": true,
                  "customOptions": {
                    "dateFormat": "yyyy-MM-dd",
                    "allowInput": true
                  },
                  "widget": {
                    "type": "calendar"
                  },
                  "customDefaultValue": "value = value || form.timetableStartDate;"
                }
              ],
              "width": 4
            },
            {
              "components": [
                {
                  "label": "End Date",
                  "format": "dd-MM-yyyy",
                  "tableView": false,
                  "description": "Last day for the recursive event",
                  "enableTime": false,
                  "validate": {
                    "required": true,
                    "custom": "valid = (!data.startDate || (input && moment(data.startDate).isBefore(input))) && input && form.timetableStartDate && (moment(input).isAfter(moment(form.timetableStartDate).subtract(1, 'days')) && moment(input).isBefore(moment(form.timetableEndDate).add(1, 'days')));"
                  },
                  "errors": {
                    "custom": "Event date cannot be earlier than the timetable start date or after the timetable end date and/or end date cannot precede start date."
                  },
                  "key": "endDate",
                  "type": "datetime",
                  "input": true,
                  "customOptions": {
                    "dateFormat": "yyyy-MM-dd",
                    "allowInput": true
                  },
                  "widget": {
                    "type": "calendar"
                  },
                  "customDefaultValue": "value = value || form.timetableEndDate;"
                }
              ],
              "width": 4
            },
            {
              "components": [
                {
                  "label": "Pick Day",
                  "description": "Day of week for the event",
                  "widget": "choicesjs",
                  "tableView": true,
                  "multiple": true,
                  "data": {
                    "values": [
                      {
                        "label": "Monday",
                        "value": "1"
                      },
                      {
                        "label": "Tuesday",
                        "value": "2"
                      },
                      {
                        "label": "Wednesday",
                        "value": "3"
                      },
                      {
                        "label": "Thursday",
                        "value": "4"
                      },
                      {
                        "label": "Friday",
                        "value": "5"
                      },
                      {
                        "label": "Saturday",
                        "value": "6"
                      },
                      {
                        "label": "Sunday",
                        "value": "7"
                      }
                    ]
                  },
                  "selectThreshold": 0.3,
                  "key": "pickDay",
                  "type": "select",
                  "input": true,
                  "validate": {
                    "required": true
                  }
                }
              ],
              "width": 4
            },
            {
              "components": [
                {
                  "label": "Start Time",
                  "description": "Starting time for each event",
                  "format": "HH:mm",
                  "tableView": false,
                  "enableDate": false,
                  "validate": {
                    "required": true,
                    "custom": "valid = input && data.endTime && moment(input).isBefore(data.endTime);"
                  },
                  "errors": {
                    "custom": "Start time cannot succeed end time."
                  },
                  "timePicker": {
                    "minuteStep": 15,
                    "showMeridian": false
                  },
                  "key": "startTime",
                  "type": "datetime",
                  "input": true,
                  "customDefaultValue": "value = moment().startOf('hour').toDate().toISOString();",
                  "widget": {
                    "type": "calendar"
                  }
                }
              ],
              "width": 4
            },
            {
              "components": [
                {
                  "label": "End Time",
                  "format": "HH:mm",
                  "description": "Ending time for each event",
                  "tableView": false,
                  "enableDate": false,
                  "validate": {
                    "required": true,
                    "custom": "valid = input && data.startTime && moment(data.startTime).isBefore(input);"
                  },
                  "errors": {
                    "custom": "End time cannot precede start time."
                  },
                  "timePicker": {
                    "minuteStep": 15,
                    "showMeridian": false
                  },
                  "key": "endTime",
                  "type": "datetime",
                  "input": true,
                  "customDefaultValue": "value = moment().add(2,'h').startOf('hour').toDate().toISOString();",
                  "widget": {
                    "type": "calendar"
                  }
                }
              ],
              "width": 4
            },
            {
              "components": [
                {
                  "label": "Absence Coefficient",
                  "description": "The number of absences an absent student will be charged with.",
                  "tableView": true,
                  "validate": {
                    "required": false,
                    "pattern": "^[0-9]+$",
                    "min": 0
                  },
                  "errors": {
                    "pattern": "The absence coefficient must be an integer."
                  },
                  "type": "textfield",
                  "key": "eventAttendanceCoefficient",
                  "input": true,
                  "defaultValue": 1
                }
              ],
              "width": 4
            },
            {
              "components": [
                {
                  "label": "Event Name",
                  "widget": {
                    "type": "input"
                  },
                  "validate": {
                    "required": true
                  },
                  "key": "title",
                  "type": "textfield",
                  "input": true
                }
              ],
              "width": 8
            },
            {
              "components": [
                {
                  "label": "mustRegisterSection",
                  "key": "mustRegisterSection",
                  "type": "hidden",
                  "input": true,
                  "tableView": false,
                  "calculateValue": "value = data.courseClass && data.courseClass.mustRegisterSection ? true : false;"
                },
                {
                  "label": "Sections",
                  "widget": "choicesjs",
                  "tableView": true,
                  "multiple": true,
                  "template": "{{ item.name }}",
                  "dataType": "object",
                  "idPath": "id",
                  "dataSrc": "url",
                  "data": {
                    "url": "{{form.sectionsEndpoint}}",
                    "headers": []
                  },
                  "customConditional": "show = !!(form.sectionsEndpoint && data.courseClass);",
                  "selectThreshold": 0.3,
                  "logic": [
                    {
                      "name": "requiredLogic",
                      "trigger": {
                        "type": "simple",
                        "simple": {
                            "show": true,
                            "when": "mustRegisterSection", 
                            "eq": true
                        }
                      },
                      "actions": [
                        {
                          "name": "requiredAction",
                          "type": "property",
                          "property": {
                            "label": "Required",
                            "value": "validate.required",
                            "type": "boolean"
                          },
                          "state": true
                        }
                      ]
                    }
                  ],
                  "selectValues": "value",
                  "key": "sections",
                  "type": "select",
                  "input": true
                }
              ],
              "width": 4
            }
          ]
        },
        {
          "customClass": "text-dark",
          "hideLabel": true,
          "type": "columns",
          "input": false,
          "columns": [
            {
              "components": [
                {
                  "label": "Place",
                  "widget": "choicesjs",
                  "tableView": true,
                  "multiple": false,
                  "template": "{{item.displayCode ? item.displayCode + ' - ' : ''}}{{item.fullName || item.name}}",
                  "dataType": "object",
                  "idPath": "id",
                  "dataSrc": "url",
                  "ignoreCache": true,
                  "data": {
                    "url": "{{form.placesEndpoint}}",
                    "headers": []
                  },
                  "selectThreshold": 0.3,
                  "key": "location",
                  "type": "select",
                  "input": true,
                  "customConditional": "show = !!(form.placesEndpoint);"
                }
              ],
              "width": 6
            },
            {
              "components": [
                {
                  "label": "Event URL",
                  "widget": {
                    "type": "input"
                  },
                  "key": "url",
                  "type": "textfield",
                  "input": true,
                  "validate": {
                    "pattern": "^((https?|ftps?):\\/\\/)([\\da-z.-]+)\\.([a-z.]{2,6})([\\/\\w .-]*)*\\/?(.*?)",
                    "customMessage": "Expected a valid absolute URL"
                  },
                  "description": "Enter the URL related to the event"
                }
              ],
              "width": 6
            }
          ]
        }
      ]
    },
    {
      "label": "Description",
      "tableView": true,
      "validate": {
        "required": false,
        "maxLength": 512
      },
      "key": "description",
      "type": "textarea",
      "rows": 3,
      "input": true
    }
  ]
}