{
  "model": "Events",
  "settings": {
    "i18n": {
      "el": {
        "Exam Event Status": "Κατάσταση Γεγονότος Εξέτασης",
        "Select the new exam event status.": "Επιλέξτε τη νέα κατάσταση του γεγονότος εξέτασης"
      }
    }
  },
  "components": [
    {
      "type": "fieldset",
      "key": "fieldSet",
      "input": false,
      "components": [
        {
          "columns": [
            {
              "components": [
                {
                  "label": "Exam Event Status",
                  "labelPosition": "top",
                  "widget": "choicesjs",
                  "dataSrc": "url",
                  "data": {
                    "url": "/EventStatusTypes?$select=id, name, alternateName",
                    "headers": []
                  },
                  "validate": {
                    "required": true
                  },
                  "lazyLoad": false,
                  "dataType": "object",
                  "dataPath": "id",
                  "template": "<span class='d-block pr-5 text-truncate'>{{ item.name }}</span>",
                  "selectThreshold": 0.3,
                  "key": "eventStatus",
                  "type": "select",
                  "selectValues": "value",
                  "input": true,
                  "description": "Select the new exam event status."
                }
              ],
              "width": 8
            }
          ],
          "customClass": "text-dark",
          "hideLabel": true,
          "type": "columns",
          "input": false
        }
      ]
    }
  ]
}